<svg width="168" height="114" viewBox="0 0 168 114" version="1.1" xmlns="http://www.w3.org/2000/svg" xmlns:xlink="http://www.w3.org/1999/xlink" xmlns:figma="http://www.figma.com/figma/ns">
<title>logo</title>
<desc>Created using Figma</desc>
<g id="Canvas" transform="translate(-426 -55)" figma:type="canvas">
<g id="logo" figma:type="frame">
<g id="O35LUK1" figma:type="frame">
<g id="Vector" figma:type="vector">
<use xlink:href="#path0_fill" transform="translate(474.103 55)" fill="#FFFFFF"/>
</g>
</g>
<g id="BLABLA" figma:type="text">
<use xlink:href="#path1_fill" transform="translate(423.565 114)" fill="#FFFFFF"/>
</g>
<g id="Lorem ipsum dolor" figma:type="text">
<use xlink:href="#path2_fill" transform="translate(425.587 153)" fill="#FFFFFF"/>
</g>
</g>
</g>
<defs>
<path id="path0_fill" d="M 50.5356 0.000282074L 43.9665 6.4991L 37.3977 0.000282074L 34.4671 2.89961L 55.5978 24.0001L 43.9665 35.507L 40.4267 32.0053L 48.5183 23.9999L 24.2593 -2.48341e-06L 3.34702e-06 23.9999L 24.2593 48L 30.8284 41.5012L 37.3975 48L 40.4052 45.0241L 19.1968 24.0001L 30.8287 12.493L 34.3683 15.995L 26.2766 24.0001L 50.5356 48L 74.7949 24.0001L 50.5356 0.000282074ZM 13.1384 24.0001L 27.7989 38.5041L 24.2593 42.0058L 6.05868 24.0001L 24.2596 5.99417L 27.7992 9.4959L 13.1384 24.0001ZM 32.3353 24.0001L 37.3975 18.9918L 42.4599 23.9999L 37.3975 29.0082L 32.3353 24.0001ZM 46.9955 38.5041L 61.6565 23.9999L 46.996 9.4959L 50.5356 5.99417L 68.7362 23.9999L 50.5356 42.0058L 46.9955 38.5041Z"/>
<path id="path1_fill" d="M 10.6867 28.208C 10.6867 28.5067 10.74 28.7093 10.8467 28.816C 10.9534 28.9227 11.156 28.976 11.4547 28.976L 13.6307 28.976C 14.1854 28.976 14.6547 28.9013 15.0387 28.752C 15.444 28.5813 15.796 28.3147 16.0947 27.952C 16.4147 27.568 16.6494 27.0347 16.7987 26.352C 16.948 25.648 17.0227 24.7947 17.0227 23.792C 17.0227 22.7893 16.948 21.9467 16.7987 21.264C 16.6494 20.56 16.4147 20.0267 16.0947 19.664C 15.796 19.28 15.444 19.0133 15.0387 18.864C 14.6547 18.6933 14.1854 18.608 13.6307 18.608L 10.6867 18.608L 10.6867 28.208ZM 2.94269 30L 2.94269 28.976L 5.18269 28.976C 5.48136 28.976 5.68403 28.9227 5.79069 28.816C 5.89736 28.7093 5.95069 28.5067 5.95069 28.208L 5.95069 9.008C 5.95069 8.70933 5.89736 8.50667 5.79069 8.4C 5.68403 8.29333 5.48136 8.24 5.18269 8.24L 2.94269 8.24L 2.94269 7.216L 14.2067 7.216C 15.4867 7.216 16.6707 7.44 17.7587 7.888C 18.8467 8.336 19.7214 8.98667 20.3827 9.84C 21.044 10.6933 21.3747 11.632 21.3747 12.656C 21.3747 13.3813 21.2147 14.0533 20.8947 14.672C 20.5747 15.2907 20.148 15.8133 19.6147 16.24C 19.0814 16.6667 18.516 17.0187 17.9187 17.296C 17.3214 17.5733 16.6707 17.808 15.9667 18L 15.9667 18.192C 16.6707 18.2987 17.3747 18.5013 18.0787 18.8C 18.7827 19.0773 19.444 19.44 20.0627 19.888C 20.6814 20.336 21.1827 20.9013 21.5667 21.584C 21.9507 22.2667 22.1427 23.0027 22.1427 23.792C 22.1427 25.0933 21.7907 26.224 21.0867 27.184C 20.3827 28.1227 19.476 28.8267 18.3667 29.296C 17.2574 29.7653 16.0094 30 14.6227 30L 2.94269 30ZM 10.6867 17.584L 13.6307 17.584C 14.228 17.584 14.7294 17.4667 15.1347 17.232C 15.54 16.9973 15.8387 16.656 16.0307 16.208C 16.2227 15.76 16.3614 15.2587 16.4467 14.704C 16.532 14.1493 16.5747 13.4667 16.5747 12.656C 16.5747 11.248 16.3294 10.16 15.8387 9.392C 15.348 8.624 14.676 8.24 13.8227 8.24L 11.4547 8.24C 11.156 8.24 10.9534 8.29333 10.8467 8.4C 10.74 8.50667 10.6867 8.70933 10.6867 9.008L 10.6867 17.584ZM 32.0614 30L 32.0614 28.976L 34.3014 28.976C 34.5788 28.976 34.7708 28.912 34.8774 28.784C 35.0054 28.6347 35.0694 28.4107 35.0694 28.112L 35.0694 9.008C 35.0694 8.70933 35.0161 8.50667 34.9094 8.4C 34.8028 8.29333 34.6001 8.24 34.3014 8.24L 32.0614 8.24L 32.0614 7.216L 42.8134 7.216L 42.8134 8.24L 40.5734 8.24C 40.2748 8.24 40.0721 8.29333 39.9654 8.4C 39.8588 8.50667 39.8054 8.70933 39.8054 9.008L 39.8054 28.112C 39.8054 28.4107 39.8588 28.6347 39.9654 28.784C 40.0934 28.912 40.2961 28.976 40.5734 28.976L 43.8054 28.976C 44.2961 28.976 44.7761 28.8373 45.2454 28.56C 45.7148 28.2827 46.1201 27.9413 46.4614 27.536C 46.8028 27.1307 47.1228 26.6613 47.4214 26.128C 47.7201 25.5947 47.9548 25.1147 48.1254 24.688C 48.3174 24.24 48.4774 23.8133 48.6054 23.408C 48.7121 23.0667 48.8294 22.6187 48.9574 22.064C 49.0854 21.5093 49.1921 21.0507 49.2774 20.688L 49.4054 20.144L 50.4294 20.144L 50.1734 30L 32.0614 30ZM 65.7549 22.768L 71.6749 22.768L 68.7629 13.968L 65.7549 22.768ZM 59.3229 30L 59.3229 28.976L 60.4109 28.976C 61.0509 28.976 61.6163 28.72 62.1069 28.208C 62.5976 27.696 62.9709 27.088 63.2269 26.384L 69.9789 6.64L 71.3229 6.64L 78.1709 27.344C 78.5336 28.432 79.1629 28.976 80.0589 28.976L 81.3389 28.976L 81.3389 30L 70.1069 30L 70.1069 28.976L 72.4109 28.976C 72.6456 28.976 72.8483 28.88 73.0189 28.688C 73.1896 28.4747 73.2749 28.2293 73.2749 27.952C 73.2749 27.7173 73.2109 27.408 73.0829 27.024L 72.0589 23.952L 65.3389 23.952L 64.6669 25.904C 64.4323 26.5013 64.3149 27.0453 64.3149 27.536C 64.3149 27.8987 64.4643 28.2293 64.7629 28.528C 65.0616 28.8267 65.4669 28.976 65.9789 28.976L 67.4829 28.976L 67.4829 30L 59.3229 30ZM 98.1679 28.208C 98.1679 28.5067 98.2213 28.7093 98.3279 28.816C 98.4346 28.9227 98.6373 28.976 98.9359 28.976L 101.112 28.976C 101.667 28.976 102.136 28.9013 102.52 28.752C 102.925 28.5813 103.277 28.3147 103.576 27.952C 103.896 27.568 104.131 27.0347 104.28 26.352C 104.429 25.648 104.504 24.7947 104.504 23.792C 104.504 22.7893 104.429 21.9467 104.28 21.264C 104.131 20.56 103.896 20.0267 103.576 19.664C 103.277 19.28 102.925 19.0133 102.52 18.864C 102.136 18.6933 101.667 18.608 101.112 18.608L 98.1679 18.608L 98.1679 28.208ZM 90.4239 30L 90.4239 28.976L 92.6639 28.976C 92.9626 28.976 93.1653 28.9227 93.2719 28.816C 93.3786 28.7093 93.4319 28.5067 93.4319 28.208L 93.4319 9.008C 93.4319 8.70933 93.3786 8.50667 93.2719 8.4C 93.1653 8.29333 92.9626 8.24 92.6639 8.24L 90.4239 8.24L 90.4239 7.216L 101.688 7.216C 102.968 7.216 104.152 7.44 105.24 7.888C 106.328 8.336 107.203 8.98667 107.864 9.84C 108.525 10.6933 108.856 11.632 108.856 12.656C 108.856 13.3813 108.696 14.0533 108.376 14.672C 108.056 15.2907 107.629 15.8133 107.096 16.24C 106.563 16.6667 105.997 17.0187 105.4 17.296C 104.803 17.5733 104.152 17.808 103.448 18L 103.448 18.192C 104.152 18.2987 104.856 18.5013 105.56 18.8C 106.264 19.0773 106.925 19.44 107.544 19.888C 108.163 20.336 108.664 20.9013 109.048 21.584C 109.432 22.2667 109.624 23.0027 109.624 23.792C 109.624 25.0933 109.272 26.224 108.568 27.184C 107.864 28.1227 106.957 28.8267 105.848 29.296C 104.739 29.7653 103.491 30 102.104 30L 90.4239 30ZM 98.1679 17.584L 101.112 17.584C 101.709 17.584 102.211 17.4667 102.616 17.232C 103.021 16.9973 103.32 16.656 103.512 16.208C 103.704 15.76 103.843 15.2587 103.928 14.704C 104.013 14.1493 104.056 13.4667 104.056 12.656C 104.056 11.248 103.811 10.16 103.32 9.392C 102.829 8.624 102.157 8.24 101.304 8.24L 98.9359 8.24C 98.6373 8.24 98.4346 8.29333 98.3279 8.4C 98.2213 8.50667 98.1679 8.70933 98.1679 9.008L 98.1679 17.584ZM 119.543 30L 119.543 28.976L 121.783 28.976C 122.06 28.976 122.252 28.912 122.359 28.784C 122.487 28.6347 122.551 28.4107 122.551 28.112L 122.551 9.008C 122.551 8.70933 122.497 8.50667 122.391 8.4C 122.284 8.29333 122.081 8.24 121.783 8.24L 119.543 8.24L 119.543 7.216L 130.295 7.216L 130.295 8.24L 128.055 8.24C 127.756 8.24 127.553 8.29333 127.447 8.4C 127.34 8.50667 127.287 8.70933 127.287 9.008L 127.287 28.112C 127.287 28.4107 127.34 28.6347 127.447 28.784C 127.575 28.912 127.777 28.976 128.055 28.976L 131.287 28.976C 131.777 28.976 132.257 28.8373 132.727 28.56C 133.196 28.2827 133.601 27.9413 133.943 27.536C 134.284 27.1307 134.604 26.6613 134.903 26.128C 135.201 25.5947 135.436 25.1147 135.607 24.688C 135.799 24.24 135.959 23.8133 136.087 23.408C 136.193 23.0667 136.311 22.6187 136.439 22.064C 136.567 21.5093 136.673 21.0507 136.759 20.688L 136.887 20.144L 137.911 20.144L 137.655 30L 119.543 30ZM 153.236 22.768L 159.156 22.768L 156.244 13.968L 153.236 22.768ZM 146.804 30L 146.804 28.976L 147.892 28.976C 148.532 28.976 149.098 28.72 149.588 28.208C 150.079 27.696 150.452 27.088 150.708 26.384L 157.46 6.64L 158.804 6.64L 165.652 27.344C 166.015 28.432 166.644 28.976 167.54 28.976L 168.82 28.976L 168.82 30L 157.588 30L 157.588 28.976L 159.892 28.976C 160.127 28.976 160.33 28.88 160.5 28.688C 160.671 28.4747 160.756 28.2293 160.756 27.952C 160.756 27.7173 160.692 27.408 160.564 27.024L 159.54 23.952L 152.82 23.952L 152.148 25.904C 151.914 26.5013 151.796 27.0453 151.796 27.536C 151.796 27.8987 151.946 28.2293 152.244 28.528C 152.543 28.8267 152.948 28.976 153.46 28.976L 154.964 28.976L 154.964 30L 146.804 30Z"/>
<path id="path2_fill" d="M 9.3088 11.95L 9.3088 13L 2.8968 13L 2.8968 3.76L 4.0168 3.76L 4.0168 11.95L 9.3088 11.95ZM 16.0429 5.86C 17.0976 5.86 17.9236 6.182 18.5209 6.826C 19.1276 7.47 19.4309 8.36133 19.4309 9.5C 19.4309 10.6387 19.1276 11.53 18.5209 12.174C 17.9236 12.818 17.0976 13.14 16.0429 13.14C 14.9882 13.14 14.1576 12.818 13.5509 12.174C 12.9536 11.53 12.6549 10.6387 12.6549 9.5C 12.6549 8.36133 12.9536 7.47 13.5509 6.826C 14.1576 6.182 14.9882 5.86 16.0429 5.86ZM 16.0429 6.826C 15.3336 6.826 14.7782 7.064 14.3769 7.54C 13.9756 8.016 13.7749 8.66933 13.7749 9.5C 13.7749 10.3307 13.9756 10.984 14.3769 11.46C 14.7782 11.936 15.3336 12.174 16.0429 12.174C 16.7522 12.174 17.3076 11.936 17.7089 11.46C 18.1102 10.984 18.3109 10.3307 18.3109 9.5C 18.3109 8.66933 18.1102 8.016 17.7089 7.54C 17.3076 7.064 16.7522 6.826 16.0429 6.826ZM 27.1505 5.86C 27.4865 5.86 27.7432 5.90667 27.9205 6L 27.6965 7.092C 27.4725 6.97067 27.1785 6.91 26.8145 6.91C 26.5158 6.91 26.2218 6.99867 25.9325 7.176C 25.6525 7.344 25.4192 7.60533 25.2325 7.96C 25.0552 8.30533 24.9665 8.72533 24.9665 9.22L 24.9665 13L 23.8465 13L 23.8465 6L 24.7565 6L 24.9105 7.148C 25.3025 6.28933 26.0492 5.86 27.1505 5.86ZM 37.5886 9.136C 37.5886 9.39733 37.5699 9.65867 37.5326 9.92L 32.2546 9.92C 32.3199 10.6293 32.5533 11.18 32.9546 11.572C 33.3653 11.964 33.8926 12.16 34.5366 12.16C 35.0499 12.16 35.4746 12.0713 35.8106 11.894C 36.1559 11.7167 36.3893 11.46 36.5106 11.124L 37.4486 11.614C 37.1686 12.1087 36.7953 12.4867 36.3286 12.748C 35.8619 13.0093 35.2646 13.14 34.5366 13.14C 33.4819 13.14 32.6513 12.818 32.0446 12.174C 31.4473 11.53 31.1486 10.6387 31.1486 9.5C 31.1486 8.36133 31.4333 7.47 32.0026 6.826C 32.5813 6.182 33.3979 5.86 34.4526 5.86C 35.1059 5.86 35.6706 6.00467 36.1466 6.294C 36.6226 6.58333 36.9819 6.97533 37.2246 7.47C 37.4673 7.96467 37.5886 8.52 37.5886 9.136ZM 34.4526 6.84C 33.8366 6.84 33.3373 7.022 32.9546 7.386C 32.5813 7.75 32.3526 8.26333 32.2686 8.926L 36.5106 8.926C 36.4359 8.27267 36.2213 7.764 35.8666 7.4C 35.5119 7.02667 35.0406 6.84 34.4526 6.84ZM 50.0914 5.86C 50.558 5.86 50.992 5.958 51.3934 6.154C 51.804 6.34067 52.1353 6.63467 52.3873 7.036C 52.6393 7.43733 52.7653 7.932 52.7653 8.52L 52.7653 13L 51.6454 13L 51.6454 8.632C 51.6454 8.02533 51.4913 7.57733 51.1833 7.288C 50.8847 6.98933 50.488 6.84 49.9933 6.84C 49.62 6.84 49.2747 6.93333 48.9573 7.12C 48.6493 7.29733 48.3973 7.56333 48.2013 7.918C 48.0147 8.26333 47.9213 8.67867 47.9213 9.164L 47.9213 13L 46.8013 13L 46.8013 8.632C 46.8013 8.02533 46.6473 7.57733 46.3393 7.288C 46.0407 6.98933 45.644 6.84 45.1493 6.84C 44.8133 6.84 44.4867 6.92867 44.1693 7.106C 43.852 7.274 43.5907 7.54 43.3853 7.904C 43.18 8.268 43.0773 8.72067 43.0773 9.262L 43.0773 13L 41.9573 13L 41.9573 6L 42.9373 6L 43.0073 7.092C 43.25 6.68133 43.5673 6.37333 43.9593 6.168C 44.3607 5.96267 44.79 5.86 45.2473 5.86C 45.7607 5.86 46.232 5.97667 46.6613 6.21C 47.1 6.44333 47.4313 6.784 47.6553 7.232C 47.8607 6.784 48.1967 6.44333 48.6634 6.21C 49.13 5.97667 49.606 5.86 50.0914 5.86ZM 65.1126 4.656C 64.8606 4.656 64.6553 4.58133 64.4966 4.432C 64.3473 4.27333 64.2726 4.068 64.2726 3.816C 64.2726 3.564 64.3473 3.36333 64.4966 3.214C 64.6553 3.05533 64.8606 2.976 65.1126 2.976C 65.3646 2.976 65.5653 3.05533 65.7146 3.214C 65.8733 3.36333 65.9526 3.564 65.9526 3.816C 65.9526 4.068 65.8733 4.27333 65.7146 4.432C 65.5653 4.58133 65.3646 4.656 65.1126 4.656ZM 65.6726 13L 64.5526 13L 64.5526 6L 65.6726 6L 65.6726 13ZM 73.9553 5.86C 74.9353 5.86 75.71 6.18667 76.2793 6.84C 76.858 7.484 77.1473 8.37067 77.1473 9.5C 77.1473 10.6293 76.858 11.5207 76.2793 12.174C 75.71 12.818 74.9353 13.14 73.9553 13.14C 73.442 13.14 72.98 13.028 72.5693 12.804C 72.168 12.58 71.8553 12.2813 71.6313 11.908L 71.6313 15.94L 70.5113 15.94L 70.5113 6L 71.4913 6L 71.5613 7.218C 71.7667 6.80733 72.0793 6.48067 72.4993 6.238C 72.9287 5.986 73.414 5.86 73.9553 5.86ZM 73.8293 12.16C 74.5107 12.16 75.0473 11.922 75.4393 11.446C 75.8313 10.9607 76.0273 10.312 76.0273 9.5C 76.0273 8.688 75.8313 8.044 75.4393 7.568C 75.0473 7.08267 74.5107 6.84 73.8293 6.84C 73.1573 6.84 72.6207 7.07333 72.2193 7.54C 71.8273 8.00667 71.6313 8.632 71.6313 9.416L 71.6313 9.584C 71.6313 10.368 71.8273 10.9933 72.2193 11.46C 72.6207 11.9267 73.1573 12.16 73.8293 12.16ZM 83.9497 13.14C 83.2777 13.14 82.671 13.0093 82.1297 12.748C 81.5884 12.4773 81.1917 12.0807 80.9397 11.558L 81.8497 10.928C 82.0084 11.3387 82.2837 11.6467 82.6757 11.852C 83.0677 12.0573 83.5297 12.16 84.0617 12.16C 84.6124 12.16 85.0324 12.062 85.3217 11.866C 85.611 11.67 85.7557 11.4227 85.7557 11.124C 85.7557 10.8533 85.6204 10.6387 85.3497 10.48C 85.079 10.312 84.603 10.1673 83.9217 10.046C 83.2497 9.92467 82.7177 9.78 82.3257 9.612C 81.9337 9.43467 81.649 9.21533 81.4717 8.954C 81.2944 8.68333 81.2057 8.352 81.2057 7.96C 81.2057 7.57733 81.3177 7.22733 81.5417 6.91C 81.7657 6.59267 82.0877 6.34067 82.5077 6.154C 82.9277 5.958 83.413 5.86 83.9637 5.86C 84.7104 5.86 85.3077 6 85.7557 6.28C 86.213 6.55067 86.5397 6.97067 86.7357 7.54L 85.7837 8.1C 85.6344 7.652 85.4057 7.33 85.0977 7.134C 84.799 6.938 84.421 6.84 83.9637 6.84C 83.5064 6.84 83.119 6.94267 82.8017 7.148C 82.4844 7.35333 82.3257 7.59133 82.3257 7.862C 82.3257 8.17 82.461 8.408 82.7317 8.576C 83.0117 8.744 83.5064 8.88867 84.2157 9.01C 85.1864 9.16867 85.8724 9.40667 86.2737 9.724C 86.675 10.0413 86.8757 10.4893 86.8757 11.068C 86.8757 11.4693 86.7544 11.8287 86.5117 12.146C 86.2784 12.454 85.9377 12.6967 85.4897 12.874C 85.051 13.0513 84.5377 13.14 83.9497 13.14ZM 97.2545 6L 97.2545 13L 96.2745 13L 96.2045 11.936C 95.7378 12.7387 94.9025 13.14 93.6985 13.14C 92.9425 13.14 92.3218 12.93 91.8365 12.51C 91.3605 12.09 91.1225 11.446 91.1225 10.578L 91.1225 6L 92.2425 6L 92.2425 10.284C 92.2425 10.9653 92.3825 11.4507 92.6625 11.74C 92.9425 12.02 93.3532 12.16 93.8945 12.16C 94.5385 12.16 95.0705 11.964 95.4905 11.572C 95.9198 11.18 96.1345 10.592 96.1345 9.808L 96.1345 6L 97.2545 6ZM 110.234 5.86C 110.701 5.86 111.135 5.958 111.536 6.154C 111.947 6.34067 112.278 6.63467 112.53 7.036C 112.782 7.43733 112.908 7.932 112.908 8.52L 112.908 13L 111.788 13L 111.788 8.632C 111.788 8.02533 111.634 7.57733 111.326 7.288C 111.028 6.98933 110.631 6.84 110.136 6.84C 109.763 6.84 109.418 6.93333 109.1 7.12C 108.792 7.29733 108.54 7.56333 108.344 7.918C 108.158 8.26333 108.064 8.67867 108.064 9.164L 108.064 13L 106.944 13L 106.944 8.632C 106.944 8.02533 106.79 7.57733 106.482 7.288C 106.184 6.98933 105.787 6.84 105.292 6.84C 104.956 6.84 104.63 6.92867 104.312 7.106C 103.995 7.274 103.734 7.54 103.528 7.904C 103.323 8.268 103.22 8.72067 103.22 9.262L 103.22 13L 102.1 13L 102.1 6L 103.08 6L 103.15 7.092C 103.393 6.68133 103.71 6.37333 104.102 6.168C 104.504 5.96267 104.933 5.86 105.39 5.86C 105.904 5.86 106.375 5.97667 106.804 6.21C 107.243 6.44333 107.574 6.784 107.798 7.232C 108.004 6.784 108.34 6.44333 108.806 6.21C 109.273 5.97667 109.749 5.86 110.234 5.86ZM 130.912 2.78L 130.912 13L 129.932 13L 129.862 11.782C 129.656 12.1927 129.339 12.524 128.91 12.776C 128.49 13.0187 128.009 13.14 127.468 13.14C 126.488 13.14 125.708 12.818 125.13 12.174C 124.56 11.5207 124.276 10.6293 124.276 9.5C 124.276 8.37067 124.56 7.484 125.13 6.84C 125.708 6.18667 126.488 5.86 127.468 5.86C 127.981 5.86 128.438 5.972 128.84 6.196C 129.25 6.42 129.568 6.71867 129.792 7.092L 129.792 2.78L 130.912 2.78ZM 127.594 12.16C 128.266 12.16 128.798 11.9267 129.19 11.46C 129.591 10.9933 129.792 10.368 129.792 9.584L 129.792 9.416C 129.792 8.632 129.591 8.00667 129.19 7.54C 128.798 7.07333 128.266 6.84 127.594 6.84C 126.912 6.84 126.376 7.08267 125.984 7.568C 125.592 8.044 125.396 8.688 125.396 9.5C 125.396 10.312 125.592 10.9607 125.984 11.446C 126.376 11.922 126.912 12.16 127.594 12.16ZM 138.708 5.86C 139.763 5.86 140.589 6.182 141.186 6.826C 141.793 7.47 142.096 8.36133 142.096 9.5C 142.096 10.6387 141.793 11.53 141.186 12.174C 140.589 12.818 139.763 13.14 138.708 13.14C 137.653 13.14 136.823 12.818 136.216 12.174C 135.619 11.53 135.32 10.6387 135.32 9.5C 135.32 8.36133 135.619 7.47 136.216 6.826C 136.823 6.182 137.653 5.86 138.708 5.86ZM 138.708 6.826C 137.999 6.826 137.443 7.064 137.042 7.54C 136.641 8.016 136.44 8.66933 136.44 9.5C 136.44 10.3307 136.641 10.984 137.042 11.46C 137.443 11.936 137.999 12.174 138.708 12.174C 139.417 12.174 139.973 11.936 140.374 11.46C 140.775 10.984 140.976 10.3307 140.976 9.5C 140.976 8.66933 140.775 8.016 140.374 7.54C 139.973 7.064 139.417 6.826 138.708 6.826ZM 147.576 11.124C 147.576 11.4787 147.627 11.726 147.73 11.866C 147.842 11.9967 148.042 12.062 148.332 12.062C 148.528 12.062 148.696 12.048 148.836 12.02C 148.985 11.992 149.158 11.9407 149.354 11.866L 149.172 12.944C 148.864 13.0747 148.518 13.14 148.136 13.14C 147.566 13.14 147.142 12.986 146.862 12.678C 146.591 12.37 146.456 11.8987 146.456 11.264L 146.456 2.78L 147.576 2.78L 147.576 11.124ZM 155.985 5.86C 157.04 5.86 157.866 6.182 158.463 6.826C 159.07 7.47 159.373 8.36133 159.373 9.5C 159.373 10.6387 159.07 11.53 158.463 12.174C 157.866 12.818 157.04 13.14 155.985 13.14C 154.93 13.14 154.1 12.818 153.493 12.174C 152.896 11.53 152.597 10.6387 152.597 9.5C 152.597 8.36133 152.896 7.47 153.493 6.826C 154.1 6.182 154.93 5.86 155.985 5.86ZM 155.985 6.826C 155.276 6.826 154.72 7.064 154.319 7.54C 153.918 8.016 153.717 8.66933 153.717 9.5C 153.717 10.3307 153.918 10.984 154.319 11.46C 154.72 11.936 155.276 12.174 155.985 12.174C 156.694 12.174 157.25 11.936 157.651 11.46C 158.052 10.984 158.253 10.3307 158.253 9.5C 158.253 8.66933 158.052 8.016 157.651 7.54C 157.25 7.064 156.694 6.826 155.985 6.826ZM 167.093 5.86C 167.429 5.86 167.685 5.90667 167.863 6L 167.639 7.092C 167.415 6.97067 167.121 6.91 166.757 6.91C 166.458 6.91 166.164 6.99867 165.875 7.176C 165.595 7.344 165.361 7.60533 165.175 7.96C 164.997 8.30533 164.909 8.72533 164.909 9.22L 164.909 13L 163.789 13L 163.789 6L 164.699 6L 164.853 7.148C 165.245 6.28933 165.991 5.86 167.093 5.86Z"/>
</defs>
</svg>
